<?xml version="1.0" encoding="UTF-8" standalone="no"?>
<!-- Created with Bouml (http://bouml.free.fr/) -->
<!DOCTYPE svg PUBLIC "-//W3C//DTD SVG 1.1//EN" "http://www.w3.org/Graphics/SVG/1.1/DTD/svg11.dtd">
<svg width="289" height="178" version="1.1" xmlns="http://www.w3.org/2000/svg">
<g>
	<rect fill="#ffffc0" stroke="black" stroke-width="1" stroke-opacity="1" x="3" y="4" width="274" height="162" />
	<text font-family="Helvetica" font-size="12" fill="#000000" xml:space="preserve" font-weight="bold" font-style="italic" text-anchor="middle" x="140" y="19">NetObject</text>
	<line stroke="black" stroke-opacity="1" x1="3" y1="29" x2="277" y2="29" />
	<text font-family="Helvetica" font-size="12" fill="#000000" xml:space="preserve" font-weight="bold" x="9" y="44">+</text>
	<text font-family="Helvetica" font-size="12" fill="#000000" xml:space="preserve" x="27" y="44">uint16_t NetId</text>
	<line stroke="black" stroke-opacity="1" x1="3" y1="54" x2="277" y2="54" />
	<text font-family="Helvetica" font-size="12" fill="#000000" xml:space="preserve" font-weight="bold" x="9" y="69">+</text>
	<text font-family="Helvetica" font-size="12" fill="#000000" xml:space="preserve" x="27" y="69"> NetObject(const uint16_t &amp; id = -1)</text>
	<text font-family="Helvetica" font-size="12" fill="#000000" xml:space="preserve" font-weight="bold" x="9" y="91">+</text>
	<text font-family="Helvetica" font-size="12" fill="#000000" xml:space="preserve" font-style="italic" x="27" y="91">uint32_t GetNetSize()</text>
	<text font-family="Helvetica" font-size="12" fill="#000000" xml:space="preserve" font-weight="bold" x="9" y="113">+</text>
	<text font-family="Helvetica" font-size="12" fill="#000000" xml:space="preserve" font-style="italic" x="27" y="113">void Serialize(Packet &amp; packet)</text>
	<text font-family="Helvetica" font-size="12" fill="#000000" xml:space="preserve" font-weight="bold" x="9" y="135">+</text>
	<text font-family="Helvetica" font-size="12" fill="#000000" xml:space="preserve" font-style="italic" x="27" y="135">void Deserialize(Packet &amp; packet)</text>
	<text font-family="Helvetica" font-size="12" fill="#000000" xml:space="preserve" font-weight="bold" x="9" y="157">+</text>
	<text font-family="Helvetica" font-size="12" fill="#000000" xml:space="preserve" font-style="italic" x="27" y="157">shared_ptr&lt;NetObject&gt; Clone()</text>
</g>
</svg>
