<?xml version="1.0" encoding="UTF-8"?>
<svg enable-background="new" viewBox="0 0 276.71875 283.125" xmlns="http://www.w3.org/2000/svg" xmlns:xlink="http://www.w3.org/1999/xlink">
 <defs>
  <linearGradient id="a">
   <stop stop-color="#666" offset="0"/>
   <stop stop-color="#323232" offset="1"/>
  </linearGradient>
  <linearGradient id="g" x1="270.71" x2="497.86" y1="265.93" y2="405.22" gradientUnits="userSpaceOnUse">
   <stop stop-color="#3e3e84" offset="0"/>
   <stop stop-color="#3e3e84" stop-opacity=".45516" offset=".5"/>
   <stop stop-color="#3e3e84" offset="1"/>
  </linearGradient>
  <radialGradient id="b" cx="372.5" cy="401.16" r="132.36" gradientTransform="matrix(1.3026 .00817 -.00299 .47635 -111.52 118.15)" gradientUnits="userSpaceOnUse">
   <stop stop-color="#666" offset="0"/>
   <stop stop-color="#333" offset="1"/>
  </radialGradient>
  <radialGradient id="f" cx="368.93" cy="352.07" r="115.47" gradientTransform="matrix(-2.2062 -1.9276 1.54 -1.7625 640.66 1683.7)" gradientUnits="userSpaceOnUse" xlink:href="#a"/>
  <radialGradient id="e" cx="372.3" cy="500.3" r="132.36" gradientTransform="matrix(1.4318 -.0031 .00052893 .24433 -161.52 336.2)" gradientUnits="userSpaceOnUse" xlink:href="#a"/>
  <radialGradient id="d" cx="254.86" cy="357.8" r="15.822" gradientTransform="matrix(1 0 0 6.955 0 -2130.7)" gradientUnits="userSpaceOnUse" xlink:href="#a"/>
  <radialGradient id="c" cx="482.86" cy="357.8" r="15.822" gradientTransform="matrix(1 0 0 6.955 0 -2130.7)" gradientUnits="userSpaceOnUse" xlink:href="#a"/>
 </defs>
 <g transform="translate(-230.56 -202.22)">
  <path d="m504.28 460.94v-215.77l-4.1094-10.031-31.891-29.922h-198.72l-31.891 29.922-4.1094 10.031v227.27l4 9.9063h262.72l4-9.9063z" fill="none" stroke="#000" stroke-width="6"/>
 </g>
 <g transform="translate(-230.56 -202.22)" stroke-width="1.823">
  <path d="m483.48 248.95v196.83l-224.11 9.4145-5-204.23z" fill="url(#f)" stroke="#4d4d4d"/>
  <path d="m239.95 248.67v218.26l29.821-30.586v-187.09z" fill="url(#d)" stroke="#1a1a1a"/>
  <path d="m497.77 248.67v218.26l-29.821-30.586v-187.09z" fill="url(#c)" stroke="#1a1a1a"/>
 </g>
 <g transform="translate(-230.56 -202.22)">
  <path d="m237.57 465.05h262.71l-32-29.821h-198.71z" fill="url(#e)" stroke="#1a1a1a" stroke-width="2"/>
 </g>
 <g transform="translate(-230.56 -202.22)">
  <path d="m237.57 315.05h262.71l-32-29.821h-198.71z" fill="url(#b)" stroke="#000" stroke-width="2"/>
 </g>
 <g transform="translate(5.009 125.55)">
  <g transform="translate(1.0004 44.617)">
   <path d="m2.2008-44.617h259.6a3.2012 3.2012 0 0 1 3.2012 3.2012v18.207a3.2012 3.2012 0 0 1 -3.2012 3.2012h-259.6a3.2012 3.2012 0 0 1 -3.2012 -3.2012v-18.207a3.2012 3.2012 0 0 1 3.2012 -3.2012" fill="#333"/>
  </g>
  <path d="m18.816 10.462h48.242a2.1221 2.1221 0 0 1 2.1221 2.1221v3.9612a2.1221 2.1221 0 0 1 -2.1221 2.1221h-48.242a2.1221 2.1221 0 0 1 -2.1221 -2.1221v-3.9612a2.1221 2.1221 0 0 1 2.1221 -2.1221" fill="#b3b3b3"/>
  <path d="m16.694 10.462h52.486v8.2054h-52.486z" fill="#b3b3b3"/>
  <path d="m76.694 10.462h52.486v8.2054h-52.486z" fill="#b3b3b3"/>
  <path d="m136.69 10.462h52.486v8.2054h-52.486z" fill="#b3b3b3"/>
  <path d="m196.69 10.462h52.486v8.2054h-52.486z" fill="#b3b3b3"/>
  <g transform="translate(1.0004 44.617)" fill="#fff">
   <path d="m257.6-42.165h2.9709a2.1221 2.1221 0 0 1 2.1221 2.1221 2.1221 2.1221 0 0 1 -2.1221 2.1221h-2.9709a2.1221 2.1221 0 0 1 -2.1221 -2.1221 2.1221 2.1221 0 0 1 2.1221 -2.1221"/>
   <path d="m257.6-26.589h2.9709a2.1221 2.1221 0 0 1 2.1221 2.1221 2.1221 2.1221 0 0 1 -2.1221 2.1221h-2.9709a2.1221 2.1221 0 0 1 -2.1221 -2.1221 2.1221 2.1221 0 0 1 2.1221 -2.1221"/>
   <path d="m3.4956-42.165h2.9709a2.1221 2.1221 0 0 1 2.1221 2.1221 2.1221 2.1221 0 0 1 -2.1221 2.1221h-2.9709a2.1221 2.1221 0 0 1 -2.1221 -2.1221 2.1221 2.1221 0 0 1 2.1221 -2.1221"/>
   <path d="m3.4956-26.589h2.9709a2.1221 2.1221 0 0 1 2.1221 2.1221 2.1221 2.1221 0 0 1 -2.1221 2.1221h-2.9709a2.1221 2.1221 0 0 1 -2.1221 -2.1221 2.1221 2.1221 0 0 1 2.1221 -2.1221"/>
  </g>
  <g transform="translate(-.20025 127.27)">
   <g transform="translate(-11.498 -53.519)" fill="#fff" stroke="#000">
    <path d="m31.091-60.463h3.564v0.51857h-3.564z" stroke-width="3.4154"/>
    <path d="m32.429-59.078h0.88821v0.14179h-0.88821z" stroke-width="3.5488"/>
    <path d="m32.81-58.271h0.12641v0.22283h-0.12641z" stroke-width="2.6654"/>
   </g>
   <path transform="translate(1.2006 -82.652)" d="m15.706-34.113h8.7032v8.303h-8.7032z" fill="none" stroke="#666"/>
   <g transform="translate(-2.7182 -53.519)" fill="#fff" stroke="#000">
    <path d="m31.091-60.463h3.564v0.51857h-3.564z" stroke-width="3.4154"/>
    <path d="m32.429-59.078h0.88821v0.14179h-0.88821z" stroke-width="3.5488"/>
    <path d="m32.81-58.271h0.12641v0.22283h-0.12641z" stroke-width="2.6654"/>
   </g>
   <path transform="translate(9.9808 -82.652)" d="m15.706-34.113h8.7032v8.303h-8.7032z" fill="none" stroke="#666"/>
   <g transform="translate(6.062 -53.519)" fill="#fff" stroke="#000">
    <path d="m31.091-60.463h3.564v0.51857h-3.564z" stroke-width="3.4154"/>
    <path d="m32.429-59.078h0.88821v0.14179h-0.88821z" stroke-width="3.5488"/>
    <path d="m32.81-58.271h0.12641v0.22283h-0.12641z" stroke-width="2.6654"/>
   </g>
   <path transform="translate(18.761 -82.652)" d="m15.706-34.113h8.7032v8.303h-8.7032z" fill="none" stroke="#666"/>
   <g transform="translate(14.842 -53.519)" fill="#fff" stroke="#000">
    <path d="m31.091-60.463h3.564v0.51857h-3.564z" stroke-width="3.4154"/>
    <path d="m32.429-59.078h0.88821v0.14179h-0.88821z" stroke-width="3.5488"/>
    <path d="m32.81-58.271h0.12641v0.22283h-0.12641z" stroke-width="2.6654"/>
   </g>
   <path transform="translate(27.541 -82.652)" d="m15.706-34.113h8.7032v8.303h-8.7032z" fill="none" stroke="#666"/>
   <g transform="translate(23.622 -53.519)" fill="#fff" stroke="#000">
    <path d="m31.091-60.463h3.564v0.51857h-3.564z" stroke-width="3.4154"/>
    <path d="m32.429-59.078h0.88821v0.14179h-0.88821z" stroke-width="3.5488"/>
    <path d="m32.81-58.271h0.12641v0.22283h-0.12641z" stroke-width="2.6654"/>
   </g>
   <path transform="translate(36.321 -82.652)" d="m15.706-34.113h8.7032v8.303h-8.7032z" fill="none" stroke="#666"/>
   <g transform="translate(32.402 -53.519)" fill="#fff" stroke="#000">
    <path d="m31.091-60.463h3.564v0.51857h-3.564z" stroke-width="3.4154"/>
    <path d="m32.429-59.078h0.88821v0.14179h-0.88821z" stroke-width="3.5488"/>
    <path d="m32.81-58.271h0.12641v0.22283h-0.12641z" stroke-width="2.6654"/>
   </g>
   <path transform="translate(45.101 -82.652)" d="m15.706-34.113h8.7032v8.303h-8.7032z" fill="none" stroke="#666"/>
   <path d="m17.156-121.57h8.203v3.1011h-8.203z" fill="#eee"/>
   <path d="m25.937-121.57h8.203v3.1011h-8.203z" fill="#eee"/>
   <path d="m34.717-121.57h8.203v3.1011h-8.203z" fill="#eee"/>
   <path d="m43.497-121.57h8.203v3.1011h-8.203z" fill="#eee"/>
   <path d="m52.277-121.57h8.203v3.1011h-8.203z" fill="#eee"/>
   <path d="m61.057-121.57h8.203v3.1011h-8.203z" fill="#eee"/>
   <g transform="translate(60.141)">
    <g transform="translate(-11.498 -53.519)" fill="#fff" stroke="#000">
     <path d="m31.091-60.463h3.564v0.51857h-3.564z" stroke-width="3.4154"/>
     <path d="m32.429-59.078h0.88821v0.14179h-0.88821z" stroke-width="3.5488"/>
     <path d="m32.81-58.271h0.12641v0.22283h-0.12641z" stroke-width="2.6654"/>
    </g>
    <path transform="translate(1.2006 -82.652)" d="m15.706-34.113h8.7032v8.303h-8.7032z" fill="none" stroke="#666"/>
    <g transform="translate(-2.7182 -53.519)" fill="#fff" stroke="#000">
     <path d="m31.091-60.463h3.564v0.51857h-3.564z" stroke-width="3.4154"/>
     <path d="m32.429-59.078h0.88821v0.14179h-0.88821z" stroke-width="3.5488"/>
     <path d="m32.81-58.271h0.12641v0.22283h-0.12641z" stroke-width="2.6654"/>
    </g>
    <path transform="translate(9.9808 -82.652)" d="m15.706-34.113h8.7032v8.303h-8.7032z" fill="none" stroke="#666"/>
    <g transform="translate(6.062 -53.519)" fill="#fff" stroke="#000">
     <path d="m31.091-60.463h3.564v0.51857h-3.564z" stroke-width="3.4154"/>
     <path d="m32.429-59.078h0.88821v0.14179h-0.88821z" stroke-width="3.5488"/>
     <path d="m32.81-58.271h0.12641v0.22283h-0.12641z" stroke-width="2.6654"/>
    </g>
    <path transform="translate(18.761 -82.652)" d="m15.706-34.113h8.7032v8.303h-8.7032z" fill="none" stroke="#666"/>
    <g transform="translate(14.842 -53.519)" fill="#fff" stroke="#000">
     <path d="m31.091-60.463h3.564v0.51857h-3.564z" stroke-width="3.4154"/>
     <path d="m32.429-59.078h0.88821v0.14179h-0.88821z" stroke-width="3.5488"/>
     <path d="m32.81-58.271h0.12641v0.22283h-0.12641z" stroke-width="2.6654"/>
    </g>
    <path transform="translate(27.541 -82.652)" d="m15.706-34.113h8.7032v8.303h-8.7032z" fill="none" stroke="#666"/>
    <g transform="translate(23.622 -53.519)" fill="#fff" stroke="#000">
     <path d="m31.091-60.463h3.564v0.51857h-3.564z" stroke-width="3.4154"/>
     <path d="m32.429-59.078h0.88821v0.14179h-0.88821z" stroke-width="3.5488"/>
     <path d="m32.81-58.271h0.12641v0.22283h-0.12641z" stroke-width="2.6654"/>
    </g>
    <path transform="translate(36.321 -82.652)" d="m15.706-34.113h8.7032v8.303h-8.7032z" fill="none" stroke="#666"/>
    <g transform="translate(32.402 -53.519)" fill="#fff" stroke="#000">
     <path d="m31.091-60.463h3.564v0.51857h-3.564z" stroke-width="3.4154"/>
     <path d="m32.429-59.078h0.88821v0.14179h-0.88821z" stroke-width="3.5488"/>
     <path d="m32.81-58.271h0.12641v0.22283h-0.12641z" stroke-width="2.6654"/>
    </g>
    <path transform="translate(45.101 -82.652)" d="m15.706-34.113h8.7032v8.303h-8.7032z" fill="none" stroke="#666"/>
    <path d="m17.156-121.57h8.203v3.1011h-8.203z" fill="#eee"/>
    <path d="m25.937-121.57h8.203v3.1011h-8.203z" fill="#eee"/>
    <path d="m34.717-121.57h8.203v3.1011h-8.203z" fill="#eee"/>
    <path d="m43.497-121.57h8.203v3.1011h-8.203z" fill="#eee"/>
    <path d="m52.277-121.57h8.203v3.1011h-8.203z" fill="#eee"/>
    <path d="m61.057-121.57h8.203v3.1011h-8.203z" fill="#eee"/>
   </g>
   <g transform="translate(120.28)">
    <g transform="translate(-11.498 -53.519)" fill="#fff" stroke="#000">
     <path d="m31.091-60.463h3.564v0.51857h-3.564z" stroke-width="3.4154"/>
     <path d="m32.429-59.078h0.88821v0.14179h-0.88821z" stroke-width="3.5488"/>
     <path d="m32.81-58.271h0.12641v0.22283h-0.12641z" stroke-width="2.6654"/>
    </g>
    <path transform="translate(1.2006 -82.652)" d="m15.706-34.113h8.7032v8.303h-8.7032z" fill="none" stroke="#666"/>
    <g transform="translate(-2.7182 -53.519)" fill="#fff" stroke="#000">
     <path d="m31.091-60.463h3.564v0.51857h-3.564z" stroke-width="3.4154"/>
     <path d="m32.429-59.078h0.88821v0.14179h-0.88821z" stroke-width="3.5488"/>
     <path d="m32.81-58.271h0.12641v0.22283h-0.12641z" stroke-width="2.6654"/>
    </g>
    <path transform="translate(9.9808 -82.652)" d="m15.706-34.113h8.7032v8.303h-8.7032z" fill="none" stroke="#666"/>
    <g transform="translate(6.062 -53.519)" fill="#fff" stroke="#000">
     <path d="m31.091-60.463h3.564v0.51857h-3.564z" stroke-width="3.4154"/>
     <path d="m32.429-59.078h0.88821v0.14179h-0.88821z" stroke-width="3.5488"/>
     <path d="m32.81-58.271h0.12641v0.22283h-0.12641z" stroke-width="2.6654"/>
    </g>
    <path transform="translate(18.761 -82.652)" d="m15.706-34.113h8.7032v8.303h-8.7032z" fill="none" stroke="#666"/>
    <g transform="translate(14.842 -53.519)" fill="#fff" stroke="#000">
     <path d="m31.091-60.463h3.564v0.51857h-3.564z" stroke-width="3.4154"/>
     <path d="m32.429-59.078h0.88821v0.14179h-0.88821z" stroke-width="3.5488"/>
     <path d="m32.81-58.271h0.12641v0.22283h-0.12641z" stroke-width="2.6654"/>
    </g>
    <path transform="translate(27.541 -82.652)" d="m15.706-34.113h8.7032v8.303h-8.7032z" fill="none" stroke="#666"/>
    <g transform="translate(23.622 -53.519)" fill="#fff" stroke="#000">
     <path d="m31.091-60.463h3.564v0.51857h-3.564z" stroke-width="3.4154"/>
     <path d="m32.429-59.078h0.88821v0.14179h-0.88821z" stroke-width="3.5488"/>
     <path d="m32.81-58.271h0.12641v0.22283h-0.12641z" stroke-width="2.6654"/>
    </g>
    <path transform="translate(36.321 -82.652)" d="m15.706-34.113h8.7032v8.303h-8.7032z" fill="none" stroke="#666"/>
    <g transform="translate(32.402 -53.519)" fill="#fff" stroke="#000">
     <path d="m31.091-60.463h3.564v0.51857h-3.564z" stroke-width="3.4154"/>
     <path d="m32.429-59.078h0.88821v0.14179h-0.88821z" stroke-width="3.5488"/>
     <path d="m32.81-58.271h0.12641v0.22283h-0.12641z" stroke-width="2.6654"/>
    </g>
    <path transform="translate(45.101 -82.652)" d="m15.706-34.113h8.7032v8.303h-8.7032z" fill="none" stroke="#666"/>
    <path d="m17.156-121.57h8.203v3.1011h-8.203z" fill="#eee"/>
    <path d="m25.937-121.57h8.203v3.1011h-8.203z" fill="#eee"/>
    <path d="m34.717-121.57h8.203v3.1011h-8.203z" fill="#eee"/>
    <path d="m43.497-121.57h8.203v3.1011h-8.203z" fill="#eee"/>
    <path d="m52.277-121.57h8.203v3.1011h-8.203z" fill="#eee"/>
    <path d="m61.057-121.57h8.203v3.1011h-8.203z" fill="#eee"/>
   </g>
   <g transform="translate(180.42)">
    <g transform="translate(-11.498 -53.519)" fill="#fff" stroke="#000">
     <path d="m31.091-60.463h3.564v0.51857h-3.564z" stroke-width="3.4154"/>
     <path d="m32.429-59.078h0.88821v0.14179h-0.88821z" stroke-width="3.5488"/>
     <path d="m32.81-58.271h0.12641v0.22283h-0.12641z" stroke-width="2.6654"/>
    </g>
    <path transform="translate(1.2006 -82.652)" d="m15.706-34.113h8.7032v8.303h-8.7032z" fill="none" stroke="#666"/>
    <g transform="translate(-2.7182 -53.519)" fill="#fff" stroke="#000">
     <path d="m31.091-60.463h3.564v0.51857h-3.564z" stroke-width="3.4154"/>
     <path d="m32.429-59.078h0.88821v0.14179h-0.88821z" stroke-width="3.5488"/>
     <path d="m32.81-58.271h0.12641v0.22283h-0.12641z" stroke-width="2.6654"/>
    </g>
    <path transform="translate(9.9808 -82.652)" d="m15.706-34.113h8.7032v8.303h-8.7032z" fill="none" stroke="#666"/>
    <g transform="translate(6.062 -53.519)" fill="#fff" stroke="#000">
     <path d="m31.091-60.463h3.564v0.51857h-3.564z" stroke-width="3.4154"/>
     <path d="m32.429-59.078h0.88821v0.14179h-0.88821z" stroke-width="3.5488"/>
     <path d="m32.81-58.271h0.12641v0.22283h-0.12641z" stroke-width="2.6654"/>
    </g>
    <path transform="translate(18.761 -82.652)" d="m15.706-34.113h8.7032v8.303h-8.7032z" fill="none" stroke="#666"/>
    <g transform="translate(14.842 -53.519)" fill="#fff" stroke="#000">
     <path d="m31.091-60.463h3.564v0.51857h-3.564z" stroke-width="3.4154"/>
     <path d="m32.429-59.078h0.88821v0.14179h-0.88821z" stroke-width="3.5488"/>
     <path d="m32.81-58.271h0.12641v0.22283h-0.12641z" stroke-width="2.6654"/>
    </g>
    <path transform="translate(27.541 -82.652)" d="m15.706-34.113h8.7032v8.303h-8.7032z" fill="none" stroke="#666"/>
    <g transform="translate(23.622 -53.519)" fill="#fff" stroke="#000">
     <path d="m31.091-60.463h3.564v0.51857h-3.564z" stroke-width="3.4154"/>
     <path d="m32.429-59.078h0.88821v0.14179h-0.88821z" stroke-width="3.5488"/>
     <path d="m32.81-58.271h0.12641v0.22283h-0.12641z" stroke-width="2.6654"/>
    </g>
    <path transform="translate(36.321 -82.652)" d="m15.706-34.113h8.7032v8.303h-8.7032z" fill="none" stroke="#666"/>
    <g transform="translate(32.402 -53.519)" fill="#fff" stroke="#000">
     <path d="m31.091-60.463h3.564v0.51857h-3.564z" stroke-width="3.4154"/>
     <path d="m32.429-59.078h0.88821v0.14179h-0.88821z" stroke-width="3.5488"/>
     <path d="m32.81-58.271h0.12641v0.22283h-0.12641z" stroke-width="2.6654"/>
    </g>
    <path transform="translate(45.101 -82.652)" d="m15.706-34.113h8.7032v8.303h-8.7032z" fill="none" stroke="#666"/>
    <path d="m17.156-121.57h8.203v3.1011h-8.203z" fill="#eee"/>
    <path d="m25.937-121.57h8.203v3.1011h-8.203z" fill="#eee"/>
    <path d="m34.717-121.57h8.203v3.1011h-8.203z" fill="#eee"/>
    <path d="m43.497-121.57h8.203v3.1011h-8.203z" fill="#eee"/>
    <path d="m52.277-121.57h8.203v3.1011h-8.203z" fill="#eee"/>
    <path d="m61.057-121.57h8.203v3.1011h-8.203z" fill="#eee"/>
   </g>
  </g>
 </g>
 <g transform="translate(5.009 151.55)">
  <g transform="translate(1.0004 44.617)">
   <path d="m2.2008-44.617h259.6a3.2012 3.2012 0 0 1 3.2012 3.2012v18.207a3.2012 3.2012 0 0 1 -3.2012 3.2012h-259.6a3.2012 3.2012 0 0 1 -3.2012 -3.2012v-18.207a3.2012 3.2012 0 0 1 3.2012 -3.2012" fill="#333"/>
  </g>
  <path d="m18.816 10.462h48.242a2.1221 2.1221 0 0 1 2.1221 2.1221v3.9612a2.1221 2.1221 0 0 1 -2.1221 2.1221h-48.242a2.1221 2.1221 0 0 1 -2.1221 -2.1221v-3.9612a2.1221 2.1221 0 0 1 2.1221 -2.1221" fill="#b3b3b3"/>
  <path d="m16.694 10.462h52.486v8.2054h-52.486z" fill="#b3b3b3"/>
  <path d="m76.694 10.462h52.486v8.2054h-52.486z" fill="#b3b3b3"/>
  <path d="m136.69 10.462h52.486v8.2054h-52.486z" fill="#b3b3b3"/>
  <path d="m196.69 10.462h52.486v8.2054h-52.486z" fill="#b3b3b3"/>
  <g transform="translate(1.0004 44.617)" fill="#fff">
   <path d="m257.6-42.165h2.9709a2.1221 2.1221 0 0 1 2.1221 2.1221 2.1221 2.1221 0 0 1 -2.1221 2.1221h-2.9709a2.1221 2.1221 0 0 1 -2.1221 -2.1221 2.1221 2.1221 0 0 1 2.1221 -2.1221"/>
   <path d="m257.6-26.589h2.9709a2.1221 2.1221 0 0 1 2.1221 2.1221 2.1221 2.1221 0 0 1 -2.1221 2.1221h-2.9709a2.1221 2.1221 0 0 1 -2.1221 -2.1221 2.1221 2.1221 0 0 1 2.1221 -2.1221"/>
   <path d="m3.4956-42.165h2.9709a2.1221 2.1221 0 0 1 2.1221 2.1221 2.1221 2.1221 0 0 1 -2.1221 2.1221h-2.9709a2.1221 2.1221 0 0 1 -2.1221 -2.1221 2.1221 2.1221 0 0 1 2.1221 -2.1221"/>
   <path d="m3.4956-26.589h2.9709a2.1221 2.1221 0 0 1 2.1221 2.1221 2.1221 2.1221 0 0 1 -2.1221 2.1221h-2.9709a2.1221 2.1221 0 0 1 -2.1221 -2.1221 2.1221 2.1221 0 0 1 2.1221 -2.1221"/>
  </g>
  <g transform="translate(-.20025 127.27)">
   <g transform="translate(-11.498 -53.519)" fill="#fff" stroke="#000">
    <path d="m31.091-60.463h3.564v0.51857h-3.564z" stroke-width="3.4154"/>
    <path d="m32.429-59.078h0.88821v0.14179h-0.88821z" stroke-width="3.5488"/>
    <path d="m32.81-58.271h0.12641v0.22283h-0.12641z" stroke-width="2.6654"/>
   </g>
   <path transform="translate(1.2006 -82.652)" d="m15.706-34.113h8.7032v8.303h-8.7032z" fill="none" stroke="#666"/>
   <g transform="translate(-2.7182 -53.519)" fill="#fff" stroke="#000">
    <path d="m31.091-60.463h3.564v0.51857h-3.564z" stroke-width="3.4154"/>
    <path d="m32.429-59.078h0.88821v0.14179h-0.88821z" stroke-width="3.5488"/>
    <path d="m32.81-58.271h0.12641v0.22283h-0.12641z" stroke-width="2.6654"/>
   </g>
   <path transform="translate(9.9808 -82.652)" d="m15.706-34.113h8.7032v8.303h-8.7032z" fill="none" stroke="#666"/>
   <g transform="translate(6.062 -53.519)" fill="#fff" stroke="#000">
    <path d="m31.091-60.463h3.564v0.51857h-3.564z" stroke-width="3.4154"/>
    <path d="m32.429-59.078h0.88821v0.14179h-0.88821z" stroke-width="3.5488"/>
    <path d="m32.81-58.271h0.12641v0.22283h-0.12641z" stroke-width="2.6654"/>
   </g>
   <path transform="translate(18.761 -82.652)" d="m15.706-34.113h8.7032v8.303h-8.7032z" fill="none" stroke="#666"/>
   <g transform="translate(14.842 -53.519)" fill="#fff" stroke="#000">
    <path d="m31.091-60.463h3.564v0.51857h-3.564z" stroke-width="3.4154"/>
    <path d="m32.429-59.078h0.88821v0.14179h-0.88821z" stroke-width="3.5488"/>
    <path d="m32.81-58.271h0.12641v0.22283h-0.12641z" stroke-width="2.6654"/>
   </g>
   <path transform="translate(27.541 -82.652)" d="m15.706-34.113h8.7032v8.303h-8.7032z" fill="none" stroke="#666"/>
   <g transform="translate(23.622 -53.519)" fill="#fff" stroke="#000">
    <path d="m31.091-60.463h3.564v0.51857h-3.564z" stroke-width="3.4154"/>
    <path d="m32.429-59.078h0.88821v0.14179h-0.88821z" stroke-width="3.5488"/>
    <path d="m32.81-58.271h0.12641v0.22283h-0.12641z" stroke-width="2.6654"/>
   </g>
   <path transform="translate(36.321 -82.652)" d="m15.706-34.113h8.7032v8.303h-8.7032z" fill="none" stroke="#666"/>
   <g transform="translate(32.402 -53.519)" fill="#fff" stroke="#000">
    <path d="m31.091-60.463h3.564v0.51857h-3.564z" stroke-width="3.4154"/>
    <path d="m32.429-59.078h0.88821v0.14179h-0.88821z" stroke-width="3.5488"/>
    <path d="m32.81-58.271h0.12641v0.22283h-0.12641z" stroke-width="2.6654"/>
   </g>
   <path transform="translate(45.101 -82.652)" d="m15.706-34.113h8.7032v8.303h-8.7032z" fill="none" stroke="#666"/>
   <path d="m17.156-121.57h8.203v3.1011h-8.203z" fill="#eee"/>
   <path d="m25.937-121.57h8.203v3.1011h-8.203z" fill="#eee"/>
   <path d="m34.717-121.57h8.203v3.1011h-8.203z" fill="#eee"/>
   <path d="m43.497-121.57h8.203v3.1011h-8.203z" fill="#eee"/>
   <path d="m52.277-121.57h8.203v3.1011h-8.203z" fill="#eee"/>
   <path d="m61.057-121.57h8.203v3.1011h-8.203z" fill="#eee"/>
   <g transform="translate(60.141)">
    <g transform="translate(-11.498 -53.519)" fill="#fff" stroke="#000">
     <path d="m31.091-60.463h3.564v0.51857h-3.564z" stroke-width="3.4154"/>
     <path d="m32.429-59.078h0.88821v0.14179h-0.88821z" stroke-width="3.5488"/>
     <path d="m32.81-58.271h0.12641v0.22283h-0.12641z" stroke-width="2.6654"/>
    </g>
    <path transform="translate(1.2006 -82.652)" d="m15.706-34.113h8.7032v8.303h-8.7032z" fill="none" stroke="#666"/>
    <g transform="translate(-2.7182 -53.519)" fill="#fff" stroke="#000">
     <path d="m31.091-60.463h3.564v0.51857h-3.564z" stroke-width="3.4154"/>
     <path d="m32.429-59.078h0.88821v0.14179h-0.88821z" stroke-width="3.5488"/>
     <path d="m32.81-58.271h0.12641v0.22283h-0.12641z" stroke-width="2.6654"/>
    </g>
    <path transform="translate(9.9808 -82.652)" d="m15.706-34.113h8.7032v8.303h-8.7032z" fill="none" stroke="#666"/>
    <g transform="translate(6.062 -53.519)" fill="#fff" stroke="#000">
     <path d="m31.091-60.463h3.564v0.51857h-3.564z" stroke-width="3.4154"/>
     <path d="m32.429-59.078h0.88821v0.14179h-0.88821z" stroke-width="3.5488"/>
     <path d="m32.81-58.271h0.12641v0.22283h-0.12641z" stroke-width="2.6654"/>
    </g>
    <path transform="translate(18.761 -82.652)" d="m15.706-34.113h8.7032v8.303h-8.7032z" fill="none" stroke="#666"/>
    <g transform="translate(14.842 -53.519)" fill="#fff" stroke="#000">
     <path d="m31.091-60.463h3.564v0.51857h-3.564z" stroke-width="3.4154"/>
     <path d="m32.429-59.078h0.88821v0.14179h-0.88821z" stroke-width="3.5488"/>
     <path d="m32.81-58.271h0.12641v0.22283h-0.12641z" stroke-width="2.6654"/>
    </g>
    <path transform="translate(27.541 -82.652)" d="m15.706-34.113h8.7032v8.303h-8.7032z" fill="none" stroke="#666"/>
    <g transform="translate(23.622 -53.519)" fill="#fff" stroke="#000">
     <path d="m31.091-60.463h3.564v0.51857h-3.564z" stroke-width="3.4154"/>
     <path d="m32.429-59.078h0.88821v0.14179h-0.88821z" stroke-width="3.5488"/>
     <path d="m32.81-58.271h0.12641v0.22283h-0.12641z" stroke-width="2.6654"/>
    </g>
    <path transform="translate(36.321 -82.652)" d="m15.706-34.113h8.7032v8.303h-8.7032z" fill="none" stroke="#666"/>
    <g transform="translate(32.402 -53.519)" fill="#fff" stroke="#000">
     <path d="m31.091-60.463h3.564v0.51857h-3.564z" stroke-width="3.4154"/>
     <path d="m32.429-59.078h0.88821v0.14179h-0.88821z" stroke-width="3.5488"/>
     <path d="m32.81-58.271h0.12641v0.22283h-0.12641z" stroke-width="2.6654"/>
    </g>
    <path transform="translate(45.101 -82.652)" d="m15.706-34.113h8.7032v8.303h-8.7032z" fill="none" stroke="#666"/>
    <path d="m17.156-121.57h8.203v3.1011h-8.203z" fill="#eee"/>
    <path d="m25.937-121.57h8.203v3.1011h-8.203z" fill="#eee"/>
    <path d="m34.717-121.57h8.203v3.1011h-8.203z" fill="#eee"/>
    <path d="m43.497-121.57h8.203v3.1011h-8.203z" fill="#eee"/>
    <path d="m52.277-121.57h8.203v3.1011h-8.203z" fill="#eee"/>
    <path d="m61.057-121.57h8.203v3.1011h-8.203z" fill="#eee"/>
   </g>
   <g transform="translate(120.28)">
    <g transform="translate(-11.498 -53.519)" fill="#fff" stroke="#000">
     <path d="m31.091-60.463h3.564v0.51857h-3.564z" stroke-width="3.4154"/>
     <path d="m32.429-59.078h0.88821v0.14179h-0.88821z" stroke-width="3.5488"/>
     <path d="m32.81-58.271h0.12641v0.22283h-0.12641z" stroke-width="2.6654"/>
    </g>
    <path transform="translate(1.2006 -82.652)" d="m15.706-34.113h8.7032v8.303h-8.7032z" fill="none" stroke="#666"/>
    <g transform="translate(-2.7182 -53.519)" fill="#fff" stroke="#000">
     <path d="m31.091-60.463h3.564v0.51857h-3.564z" stroke-width="3.4154"/>
     <path d="m32.429-59.078h0.88821v0.14179h-0.88821z" stroke-width="3.5488"/>
     <path d="m32.81-58.271h0.12641v0.22283h-0.12641z" stroke-width="2.6654"/>
    </g>
    <path transform="translate(9.9808 -82.652)" d="m15.706-34.113h8.7032v8.303h-8.7032z" fill="none" stroke="#666"/>
    <g transform="translate(6.062 -53.519)" fill="#fff" stroke="#000">
     <path d="m31.091-60.463h3.564v0.51857h-3.564z" stroke-width="3.4154"/>
     <path d="m32.429-59.078h0.88821v0.14179h-0.88821z" stroke-width="3.5488"/>
     <path d="m32.81-58.271h0.12641v0.22283h-0.12641z" stroke-width="2.6654"/>
    </g>
    <path transform="translate(18.761 -82.652)" d="m15.706-34.113h8.7032v8.303h-8.7032z" fill="none" stroke="#666"/>
    <g transform="translate(14.842 -53.519)" fill="#fff" stroke="#000">
     <path d="m31.091-60.463h3.564v0.51857h-3.564z" stroke-width="3.4154"/>
     <path d="m32.429-59.078h0.88821v0.14179h-0.88821z" stroke-width="3.5488"/>
     <path d="m32.81-58.271h0.12641v0.22283h-0.12641z" stroke-width="2.6654"/>
    </g>
    <path transform="translate(27.541 -82.652)" d="m15.706-34.113h8.7032v8.303h-8.7032z" fill="none" stroke="#666"/>
    <g transform="translate(23.622 -53.519)" fill="#fff" stroke="#000">
     <path d="m31.091-60.463h3.564v0.51857h-3.564z" stroke-width="3.4154"/>
     <path d="m32.429-59.078h0.88821v0.14179h-0.88821z" stroke-width="3.5488"/>
     <path d="m32.81-58.271h0.12641v0.22283h-0.12641z" stroke-width="2.6654"/>
    </g>
    <path transform="translate(36.321 -82.652)" d="m15.706-34.113h8.7032v8.303h-8.7032z" fill="none" stroke="#666"/>
    <g transform="translate(32.402 -53.519)" fill="#fff" stroke="#000">
     <path d="m31.091-60.463h3.564v0.51857h-3.564z" stroke-width="3.4154"/>
     <path d="m32.429-59.078h0.88821v0.14179h-0.88821z" stroke-width="3.5488"/>
     <path d="m32.81-58.271h0.12641v0.22283h-0.12641z" stroke-width="2.6654"/>
    </g>
    <path transform="translate(45.101 -82.652)" d="m15.706-34.113h8.7032v8.303h-8.7032z" fill="none" stroke="#666"/>
    <path d="m17.156-121.57h8.203v3.1011h-8.203z" fill="#eee"/>
    <path d="m25.937-121.57h8.203v3.1011h-8.203z" fill="#eee"/>
    <path d="m34.717-121.57h8.203v3.1011h-8.203z" fill="#eee"/>
    <path d="m43.497-121.57h8.203v3.1011h-8.203z" fill="#eee"/>
    <path d="m52.277-121.57h8.203v3.1011h-8.203z" fill="#eee"/>
    <path d="m61.057-121.57h8.203v3.1011h-8.203z" fill="#eee"/>
   </g>
   <g transform="translate(180.42)">
    <g transform="translate(-11.498 -53.519)" fill="#fff" stroke="#000">
     <path d="m31.091-60.463h3.564v0.51857h-3.564z" stroke-width="3.4154"/>
     <path d="m32.429-59.078h0.88821v0.14179h-0.88821z" stroke-width="3.5488"/>
     <path d="m32.81-58.271h0.12641v0.22283h-0.12641z" stroke-width="2.6654"/>
    </g>
    <path transform="translate(1.2006 -82.652)" d="m15.706-34.113h8.7032v8.303h-8.7032z" fill="none" stroke="#666"/>
    <g transform="translate(-2.7182 -53.519)" fill="#fff" stroke="#000">
     <path d="m31.091-60.463h3.564v0.51857h-3.564z" stroke-width="3.4154"/>
     <path d="m32.429-59.078h0.88821v0.14179h-0.88821z" stroke-width="3.5488"/>
     <path d="m32.81-58.271h0.12641v0.22283h-0.12641z" stroke-width="2.6654"/>
    </g>
    <path transform="translate(9.9808 -82.652)" d="m15.706-34.113h8.7032v8.303h-8.7032z" fill="none" stroke="#666"/>
    <g transform="translate(6.062 -53.519)" fill="#fff" stroke="#000">
     <path d="m31.091-60.463h3.564v0.51857h-3.564z" stroke-width="3.4154"/>
     <path d="m32.429-59.078h0.88821v0.14179h-0.88821z" stroke-width="3.5488"/>
     <path d="m32.81-58.271h0.12641v0.22283h-0.12641z" stroke-width="2.6654"/>
    </g>
    <path transform="translate(18.761 -82.652)" d="m15.706-34.113h8.7032v8.303h-8.7032z" fill="none" stroke="#666"/>
    <g transform="translate(14.842 -53.519)" fill="#fff" stroke="#000">
     <path d="m31.091-60.463h3.564v0.51857h-3.564z" stroke-width="3.4154"/>
     <path d="m32.429-59.078h0.88821v0.14179h-0.88821z" stroke-width="3.5488"/>
     <path d="m32.81-58.271h0.12641v0.22283h-0.12641z" stroke-width="2.6654"/>
    </g>
    <path transform="translate(27.541 -82.652)" d="m15.706-34.113h8.7032v8.303h-8.7032z" fill="none" stroke="#666"/>
    <g transform="translate(23.622 -53.519)" fill="#fff" stroke="#000">
     <path d="m31.091-60.463h3.564v0.51857h-3.564z" stroke-width="3.4154"/>
     <path d="m32.429-59.078h0.88821v0.14179h-0.88821z" stroke-width="3.5488"/>
     <path d="m32.81-58.271h0.12641v0.22283h-0.12641z" stroke-width="2.6654"/>
    </g>
    <path transform="translate(36.321 -82.652)" d="m15.706-34.113h8.7032v8.303h-8.7032z" fill="none" stroke="#666"/>
    <g transform="translate(32.402 -53.519)" fill="#fff" stroke="#000">
     <path d="m31.091-60.463h3.564v0.51857h-3.564z" stroke-width="3.4154"/>
     <path d="m32.429-59.078h0.88821v0.14179h-0.88821z" stroke-width="3.5488"/>
     <path d="m32.81-58.271h0.12641v0.22283h-0.12641z" stroke-width="2.6654"/>
    </g>
    <path transform="translate(45.101 -82.652)" d="m15.706-34.113h8.7032v8.303h-8.7032z" fill="none" stroke="#666"/>
    <path d="m17.156-121.57h8.203v3.1011h-8.203z" fill="#eee"/>
    <path d="m25.937-121.57h8.203v3.1011h-8.203z" fill="#eee"/>
    <path d="m34.717-121.57h8.203v3.1011h-8.203z" fill="#eee"/>
    <path d="m43.497-121.57h8.203v3.1011h-8.203z" fill="#eee"/>
    <path d="m52.277-121.57h8.203v3.1011h-8.203z" fill="#eee"/>
    <path d="m61.057-121.57h8.203v3.1011h-8.203z" fill="#eee"/>
   </g>
  </g>
 </g>
 <g transform="translate(-230.56 -202.22)" opacity=".74825">
  <path d="m233.57 256.65h270v204.29h-270z" fill="url(#g)"/>
 </g>
 <g transform="translate(-230.56 -202.22)" fill="#999" stroke="#666" stroke-width="2">
  <path d="m472.86 256.65h31.429v204.29h-31.429z"/>
  <path d="m233.57 256.65h31.429v204.29h-31.429z"/>
 </g>
 <g transform="translate(-230.56 -202.22)" stroke="#666">
  <path transform="translate(-6.0714 1.6429)" d="m262.5 370.58a7.1429 7.1429 0 1 1 -14.286 0 7.1429 7.1429 0 1 1 14.286 0z" fill="#e6e6e6" stroke-width="2"/>
  <path d="m249.29 368.37v7.7024" fill="none" stroke-linecap="round" stroke-linejoin="round" stroke-width="2"/>
  <path transform="matrix(.12193 0 0 .12193 218.15 327.03)" d="m262.5 370.58a7.1429 7.1429 0 1 1 -14.286 0 7.1429 7.1429 0 1 1 14.286 0z" fill="#e6e6e6" stroke-width="20.503"/>
 </g>
 <g transform="translate(-230.56 -202.22)">
  <path d="m237.57 482.34h262.71l4-9.8214h-270.71z" fill="#999" stroke="#666" stroke-linejoin="round" stroke-width="2"/>
 </g>
 <g transform="translate(-230.56 -202.22)" fill="#ccc" stroke="#666" stroke-width="2">
  <path d="m233.57 460.91h270.71v11.429h-270.71z"/>
  <path d="m233.57 245.27h270.71v11.429h-270.71z"/>
 </g>
 <g transform="translate(-230.56 -202.22)">
  <path d="m237.57 235.23h262.71l4 9.8214h-270.71z" fill="#e6e6e6" stroke="#666" stroke-width="2"/>
 </g>
 <g transform="translate(-230.56 -202.22)" fill="#ccc" stroke="#666" stroke-linejoin="round">
  <path d="m237.79 235.05h262.29l-31.786-29.821h-198.71z" stroke-width="2"/>
  <path d="m292.57 217.65h152.72l-8.5082-8.877h-135.71z"/>
 </g>
 <g transform="translate(-230.56 -202.22)">
  <path d="m477.40616,236.35463a.88388,.88388 0 0,1 .88388.88388v5.80838a.88388,.88388 0 0,1 -.88388.88388 .88388,.88388 0 0,1 -.88388-.88388v-5.80838a.88388,.88388 0 0,1 .88388-.88388"/>
  <path d="m469.46878,236.35463a.88388,.88388 0 0,1 .88388.88388v5.80838a.88388,.88388 0 0,1 -.88388.88388 .88388,.88388 0 0,1 -.88388-.88388v-5.80838a.88388,.88388 0 0,1 .88388-.88388"/>
  <path d="m474.76038,236.35463a.88388,.88388 0 0,1 .88388.88388v5.80838a.88388,.88388 0 0,1 -.88388.88388 .88388,.88388 0 0,1 -.88388-.88388v-5.80838a.88388,.88388 0 0,1 .88388-.88388"/>
  <path d="m466.82297,236.35463a.88388,.88388 0 0,1 .88388.88388v5.80838a.88388,.88388 0 0,1 -.88388.88388 .88388,.88388 0 0,1 -.88388-.88388v-5.80838a.88388,.88388 0 0,1 .88388-.88388"/>
  <path d="m472.11456,236.35463a.88388,.88388 0 0,1 .88388.88388v5.80838a.88388,.88388 0 0,1 -.88388.88388 .88388,.88388 0 0,1 -.88388-.88388v-5.80838a.88388,.88388 0 0,1 .88388-.88388"/>
  <path d="m458.88559,236.35463a.88388,.88388 0 0,1 .88388.88388v5.80838a.88388,.88388 0 0,1 -.88388.88388 .88388,.88388 0 0,1 -.88388-.88388v-5.80838a.88388,.88388 0 0,1 .88388-.88388"/>
  <path d="m464.17718,236.35463a.88388,.88388 0 0,1 .88388.88388v5.80838a.88388,.88388 0 0,1 -.88388.88388 .88388,.88388 0 0,1 -.88388-.88388v-5.80838a.88388,.88388 0 0,1 .88388-.88388"/>
  <path d="m456.23981,236.35463a.88388,.88388 0 0,1 .88388.88388v5.80838a.88388,.88388 0 0,1 -.88388.88388 .88388,.88388 0 0,1 -.88388-.88388v-5.80838a.88388,.88388 0 0,1 .88388-.88388"/>
  <path d="m461.53137,236.35463a.88388,.88388 0 0,1 .88388.88388v5.80838a.88388,.88388 0 0,1 -.88388.88388 .88388,.88388 0 0,1 -.88388-.88388v-5.80838a.88388,.88388 0 0,1 .88388-.88388"/>
  <path d="m448.3024,236.35463a.88388,.88388 0 0,1 .88388.88388v5.80838a.88388,.88388 0 0,1 -.88388.88388 .88388,.88388 0 0,1 -.88388-.88388v-5.80838a.88388,.88388 0 0,1 .88388-.88388"/>
  <path d="m453.59399,236.35463a.88388,.88388 0 0,1 .88388.88388v5.80838a.88388,.88388 0 0,1 -.88388.88388 .88388,.88388 0 0,1 -.88388-.88388v-5.80838a.88388,.88388 0 0,1 .88388-.88388"/>
  <path d="m445.65662,236.35463a.88388,.88388 0 0,1 .88388.88388v5.80838a.88388,.88388 0 0,1 -.88388.88388 .88388,.88388 0 0,1 -.88388-.88388v-5.80838a.88388,.88388 0 0,1 .88388-.88388"/>
  <path d="m450.94821,236.35463a.88388,.88388 0 0,1 .88388.88388v5.80838a.88388,.88388 0 0,1 -.88388.88388 .88388,.88388 0 0,1 -.88388-.88388v-5.80838a.88388,.88388 0 0,1 .88388-.88388"/>
  <path d="m437.71924,236.35463a.88388,.88388 0 0,1 .88388.88388v5.80838a.88388,.88388 0 0,1 -.88388.88388 .88388,.88388 0 0,1 -.88388-.88388v-5.80838a.88388,.88388 0 0,1 .88388-.88388"/>
  <path d="m443.01083,236.35463a.88388,.88388 0 0,1 .88388.88388v5.80838a.88388,.88388 0 0,1 -.88388.88388 .88388,.88388 0 0,1 -.88388-.88388v-5.80838a.88388,.88388 0 0,1 .88388-.88388"/>
  <path d="m435.07342,236.35463a.88388,.88388 0 0,1 .88388.88388v5.80838a.88388,.88388 0 0,1 -.88388.88388 .88388,.88388 0 0,1 -.88388-.88388v-5.80838a.88388,.88388 0 0,1 .88388-.88388"/>
  <path d="m440.36502,236.35463a.88388,.88388 0 0,1 .88388.88388v5.80838a.88388,.88388 0 0,1 -.88388.88388 .88388,.88388 0 0,1 -.88388-.88388v-5.80838a.88388,.88388 0 0,1 .88388-.88388"/>
  <path d="m427.13605,236.35463a.88388,.88388 0 0,1 .88388.88388v5.80838a.88388,.88388 0 0,1 -.88388.88388 .88388,.88388 0 0,1 -.88388-.88388v-5.80838a.88388,.88388 0 0,1 .88388-.88388"/>
  <path d="m432.42764,236.35463a.88388,.88388 0 0,1 .88388.88388v5.80838a.88388,.88388 0 0,1 -.88388.88388 .88388,.88388 0 0,1 -.88388-.88388v-5.80838a.88388,.88388 0 0,1 .88388-.88388"/>
  <path d="m424.49026,236.35463a.88388,.88388 0 0,1 .88388.88388v5.80838a.88388,.88388 0 0,1 -.88388.88388 .88388,.88388 0 0,1 -.88388-.88388v-5.80838a.88388,.88388 0 0,1 .88388-.88388"/>
  <path d="m429.78186,236.35463a.88388,.88388 0 0,1 .88388.88388v5.80838a.88388,.88388 0 0,1 -.88388.88388 .88388,.88388 0 0,1 -.88388-.88388v-5.80838a.88388,.88388 0 0,1 .88388-.88388"/>
  <path d="m416.55286,236.35463a.88388,.88388 0 0,1 .88388.88388v5.80838a.88388,.88388 0 0,1 -.88388.88388 .88388,.88388 0 0,1 -.88388-.88388v-5.80838a.88388,.88388 0 0,1 .88388-.88388"/>
  <path d="m421.84445,236.35463a.88388,.88388 0 0,1 .88388.88388v5.80838a.88388,.88388 0 0,1 -.88388.88388 .88388,.88388 0 0,1 -.88388-.88388v-5.80838a.88388,.88388 0 0,1 .88388-.88388"/>
  <path d="m413.90707,236.35463a.88388,.88388 0 0,1 .88388.88388v5.80838a.88388,.88388 0 0,1 -.88388.88388 .88388,.88388 0 0,1 -.88388-.88388v-5.80838a.88388,.88388 0 0,1 .88388-.88388"/>
  <path d="m419.19867,236.35463a.88388,.88388 0 0,1 .88388.88388v5.80838a.88388,.88388 0 0,1 -.88388.88388 .88388,.88388 0 0,1 -.88388-.88388v-5.80838a.88388,.88388 0 0,1 .88388-.88388"/>
  <path d="m405.9697,236.35463a.88388,.88388 0 0,1 .88388.88388v5.80838a.88388,.88388 0 0,1 -.88388.88388 .88388,.88388 0 0,1 -.88388-.88388v-5.80838a.88388,.88388 0 0,1 .88388-.88388"/>
  <path d="m411.26129,236.35463a.88388,.88388 0 0,1 .88388.88388v5.80838a.88388,.88388 0 0,1 -.88388.88388 .88388,.88388 0 0,1 -.88388-.88388v-5.80838a.88388,.88388 0 0,1 .88388-.88388"/>
  <path d="m403.32388,236.35463a.88388,.88388 0 0,1 .88388.88388v5.80838a.88388,.88388 0 0,1 -.88388.88388 .88388,.88388 0 0,1 -.88388-.88388v-5.80838a.88388,.88388 0 0,1 .88388-.88388"/>
  <path d="m408.61548,236.35463a.88388,.88388 0 0,1 .88388.88388v5.80838a.88388,.88388 0 0,1 -.88388.88388 .88388,.88388 0 0,1 -.88388-.88388v-5.80838a.88388,.88388 0 0,1 .88388-.88388"/>
  <path d="m395.3865,236.35463a.88388,.88388 0 0,1 .88388.88388v5.80838a.88388,.88388 0 0,1 -.88388.88388 .88388,.88388 0 0,1 -.88388-.88388v-5.80838a.88388,.88388 0 0,1 .88388-.88388"/>
  <path d="m400.6781,236.35463a.88388,.88388 0 0,1 .88388.88388v5.80838a.88388,.88388 0 0,1 -.88388.88388 .88388,.88388 0 0,1 -.88388-.88388v-5.80838a.88388,.88388 0 0,1 .88388-.88388"/>
  <path d="m392.74072,236.35463a.88388,.88388 0 0,1 .88388.88388v5.80838a.88388,.88388 0 0,1 -.88388.88388 .88388,.88388 0 0,1 -.88388-.88388v-5.80838a.88388,.88388 0 0,1 .88388-.88388"/>
  <path d="m398.03232,236.35463a.88388,.88388 0 0,1 .88388.88388v5.80838a.88388,.88388 0 0,1 -.88388.88388 .88388,.88388 0 0,1 -.88388-.88388v-5.80838a.88388,.88388 0 0,1 .88388-.88388"/>
  <path d="m384.80331,236.35463a.88388,.88388 0 0,1 .88388.88388v5.80838a.88388,.88388 0 0,1 -.88388.88388 .88388,.88388 0 0,1 -.88388-.88388v-5.80838a.88388,.88388 0 0,1 .88388-.88388"/>
  <path d="m390.09491,236.35463a.88388,.88388 0 0,1 .88388.88388v5.80838a.88388,.88388 0 0,1 -.88388.88388 .88388,.88388 0 0,1 -.88388-.88388v-5.80838a.88388,.88388 0 0,1 .88388-.88388"/>
  <path d="m382.15753,236.35463a.88388,.88388 0 0,1 .88388.88388v5.80838a.88388,.88388 0 0,1 -.88388.88388 .88388,.88388 0 0,1 -.88388-.88388v-5.80838a.88388,.88388 0 0,1 .88388-.88388"/>
  <path d="m387.44913,236.35463a.88388,.88388 0 0,1 .88388.88388v5.80838a.88388,.88388 0 0,1 -.88388.88388 .88388,.88388 0 0,1 -.88388-.88388v-5.80838a.88388,.88388 0 0,1 .88388-.88388"/>
  <path d="m374.22015,236.35463a.88388,.88388 0 0,1 .88388.88388v5.80838a.88388,.88388 0 0,1 -.88388.88388 .88388,.88388 0 0,1 -.88388-.88388v-5.80838a.88388,.88388 0 0,1 .88388-.88388"/>
  <path d="m379.51175,236.35463a.88388,.88388 0 0,1 .88388.88388v5.80838a.88388,.88388 0 0,1 -.88388.88388 .88388,.88388 0 0,1 -.88388-.88388v-5.80838a.88388,.88388 0 0,1 .88388-.88388"/>
  <path d="m371.57434,236.35463a.88388,.88388 0 0,1 .88388.88388v5.80838a.88388,.88388 0 0,1 -.88388.88388 .88388,.88388 0 0,1 -.88388-.88388v-5.80838a.88388,.88388 0 0,1 .88388-.88388"/>
  <path d="m376.86594,236.35463a.88388,.88388 0 0,1 .88388.88388v5.80838a.88388,.88388 0 0,1 -.88388.88388 .88388,.88388 0 0,1 -.88388-.88388v-5.80838a.88388,.88388 0 0,1 .88388-.88388"/>
  <path d="m363.63696,236.35463a.88388,.88388 0 0,1 .88388.88388v5.80838a.88388,.88388 0 0,1 -.88388.88388 .88388,.88388 0 0,1 -.88388-.88388v-5.80838a.88388,.88388 0 0,1 .88388-.88388"/>
  <path d="m368.92856,236.35463a.88388,.88388 0 0,1 .88388.88388v5.80838a.88388,.88388 0 0,1 -.88388.88388 .88388,.88388 0 0,1 -.88388-.88388v-5.80838a.88388,.88388 0 0,1 .88388-.88388"/>
  <path d="m360.99118,236.35463a.88388,.88388 0 0,1 .88388.88388v5.80838a.88388,.88388 0 0,1 -.88388.88388 .88388,.88388 0 0,1 -.88388-.88388v-5.80838a.88388,.88388 0 0,1 .88388-.88388"/>
  <path d="m366.28278,236.35463a.88388,.88388 0 0,1 .88388.88388v5.80838a.88388,.88388 0 0,1 -.88388.88388 .88388,.88388 0 0,1 -.88388-.88388v-5.80838a.88388,.88388 0 0,1 .88388-.88388"/>
  <path d="m353.05377,236.35463a.88388,.88388 0 0,1 .88388.88388v5.80838a.88388,.88388 0 0,1 -.88388.88388 .88388,.88388 0 0,1 -.88388-.88388v-5.80838a.88388,.88388 0 0,1 .88388-.88388"/>
  <path d="m358.34537,236.35463a.88388,.88388 0 0,1 .88388.88388v5.80838a.88388,.88388 0 0,1 -.88388.88388 .88388,.88388 0 0,1 -.88388-.88388v-5.80838a.88388,.88388 0 0,1 .88388-.88388"/>
  <path d="m350.40799,236.35463a.88388,.88388 0 0,1 .88388.88388v5.80838a.88388,.88388 0 0,1 -.88388.88388 .88388,.88388 0 0,1 -.88388-.88388v-5.80838a.88388,.88388 0 0,1 .88388-.88388"/>
  <path d="m355.69958,236.35463a.88388,.88388 0 0,1 .88388.88388v5.80838a.88388,.88388 0 0,1 -.88388.88388 .88388,.88388 0 0,1 -.88388-.88388v-5.80838a.88388,.88388 0 0,1 .88388-.88388"/>
  <path d="m342.47061,236.35463a.88388,.88388 0 0,1 .88388.88388v5.80838a.88388,.88388 0 0,1 -.88388.88388 .88388,.88388 0 0,1 -.88388-.88388v-5.80838a.88388,.88388 0 0,1 .88388-.88388"/>
  <path d="m347.76221,236.35463a.88388,.88388 0 0,1 .88388.88388v5.80838a.88388,.88388 0 0,1 -.88388.88388 .88388,.88388 0 0,1 -.88388-.88388v-5.80838a.88388,.88388 0 0,1 .88388-.88388"/>
  <path d="m339.8248,236.35463a.88388,.88388 0 0,1 .88388.88388v5.80838a.88388,.88388 0 0,1 -.88388.88388 .88388,.88388 0 0,1 -.88388-.88388v-5.80838a.88388,.88388 0 0,1 .88388-.88388"/>
  <path d="m345.11639,236.35463a.88388,.88388 0 0,1 .88388.88388v5.80838a.88388,.88388 0 0,1 -.88388.88388 .88388,.88388 0 0,1 -.88388-.88388v-5.80838a.88388,.88388 0 0,1 .88388-.88388"/>
  <path d="m331.88742,236.35463a.88388,.88388 0 0,1 .88388.88388v5.80838a.88388,.88388 0 0,1 -.88388.88388 .88388,.88388 0 0,1 -.88388-.88388v-5.80838a.88388,.88388 0 0,1 .88388-.88388"/>
  <path d="m337.17902,236.35463a.88388,.88388 0 0,1 .88388.88388v5.80838a.88388,.88388 0 0,1 -.88388.88388 .88388,.88388 0 0,1 -.88388-.88388v-5.80838a.88388,.88388 0 0,1 .88388-.88388"/>
  <path d="m329.24164,236.35463a.88388,.88388 0 0,1 .88388.88388v5.80838a.88388,.88388 0 0,1 -.88388.88388 .88388,.88388 0 0,1 -.88388-.88388v-5.80838a.88388,.88388 0 0,1 .88388-.88388"/>
  <path d="m334.53323,236.35463a.88388,.88388 0 0,1 .88388.88388v5.80838a.88388,.88388 0 0,1 -.88388.88388 .88388,.88388 0 0,1 -.88388-.88388v-5.80838a.88388,.88388 0 0,1 .88388-.88388"/>
  <path d="m321.30426,236.35463a.88388,.88388 0 0,1 .88388.88388v5.80838a.88388,.88388 0 0,1 -.88388.88388 .88388,.88388 0 0,1 -.88388-.88388v-5.80838a.88388,.88388 0 0,1 .88388-.88388"/>
  <path d="m326.59582,236.35463a.88388,.88388 0 0,1 .88388.88388v5.80838a.88388,.88388 0 0,1 -.88388.88388 .88388,.88388 0 0,1 -.88388-.88388v-5.80838a.88388,.88388 0 0,1 .88388-.88388"/>
  <path d="m318.65845,236.35463a.88388,.88388 0 0,1 .88388.88388v5.80838a.88388,.88388 0 0,1 -.88388.88388 .88388,.88388 0 0,1 -.88388-.88388v-5.80838a.88388,.88388 0 0,1 .88388-.88388"/>
  <path d="m323.95004,236.35463a.88388,.88388 0 0,1 .88388.88388v5.80838a.88388,.88388 0 0,1 -.88388.88388 .88388,.88388 0 0,1 -.88388-.88388v-5.80838a.88388,.88388 0 0,1 .88388-.88388"/>
  <path d="m310.72107,236.35463a.88388,.88388 0 0,1 .88388.88388v5.80838a.88388,.88388 0 0,1 -.88388.88388 .88388,.88388 0 0,1 -.88388-.88388v-5.80838a.88388,.88388 0 0,1 .88388-.88388"/>
  <path d="m316.01266,236.35463a.88388,.88388 0 0,1 .88388.88388v5.80838a.88388,.88388 0 0,1 -.88388.88388 .88388,.88388 0 0,1 -.88388-.88388v-5.80838a.88388,.88388 0 0,1 .88388-.88388"/>
  <path d="m308.07526,236.35463a.88388,.88388 0 0,1 .88388.88388v5.80838a.88388,.88388 0 0,1 -.88388.88388 .88388,.88388 0 0,1 -.88388-.88388v-5.80838a.88388,.88388 0 0,1 .88388-.88388"/>
  <path d="m313.36685,236.35463a.88388,.88388 0 0,1 .88388.88388v5.80838a.88388,.88388 0 0,1 -.88388.88388 .88388,.88388 0 0,1 -.88388-.88388v-5.80838a.88388,.88388 0 0,1 .88388-.88388"/>
  <path d="m300.13788,236.35463a.88388,.88388 0 0,1 .88388.88388v5.80838a.88388,.88388 0 0,1 -.88388.88388 .88388,.88388 0 0,1 -.88388-.88388v-5.80838a.88388,.88388 0 0,1 .88388-.88388"/>
  <path d="m305.42947,236.35463a.88388,.88388 0 0,1 .88388.88388v5.80838a.88388,.88388 0 0,1 -.88388.88388 .88388,.88388 0 0,1 -.88388-.88388v-5.80838a.88388,.88388 0 0,1 .88388-.88388"/>
  <path d="m297.4921,236.35463a.88388,.88388 0 0,1 .88388.88388v5.80838a.88388,.88388 0 0,1 -.88388.88388 .88388,.88388 0 0,1 -.88388-.88388v-5.80838a.88388,.88388 0 0,1 .88388-.88388"/>
  <path d="m302.78369,236.35463a.88388,.88388 0 0,1 .88388.88388v5.80838a.88388,.88388 0 0,1 -.88388.88388 .88388,.88388 0 0,1 -.88388-.88388v-5.80838a.88388,.88388 0 0,1 .88388-.88388"/>
  <path d="m289.55472,236.35463a.88388,.88388 0 0,1 .88388.88388v5.80838a.88388,.88388 0 0,1 -.88388.88388 .88388,.88388 0 0,1 -.88388-.88388v-5.80838a.88388,.88388 0 0,1 .88388-.88388"/>
  <path d="m294.84628,236.35463a.88388,.88388 0 0,1 .88388.88388v5.80838a.88388,.88388 0 0,1 -.88388.88388 .88388,.88388 0 0,1 -.88388-.88388v-5.80838a.88388,.88388 0 0,1 .88388-.88388"/>
  <path d="m286.9089,236.35463a.88388,.88388 0 0,1 .88388.88388v5.80838a.88388,.88388 0 0,1 -.88388.88388 .88388,.88388 0 0,1 -.88388-.88388v-5.80838a.88388,.88388 0 0,1 .88388-.88388"/>
  <path d="m292.2005,236.35463a.88388,.88388 0 0,1 .88388.88388v5.80838a.88388,.88388 0 0,1 -.88388.88388 .88388,.88388 0 0,1 -.88388-.88388v-5.80838a.88388,.88388 0 0,1 .88388-.88388"/>
  <path d="m278.97153,236.35463a.88388,.88388 0 0,1 .88388.88388v5.80838a.88388,.88388 0 0,1 -.88388.88388 .88388,.88388 0 0,1 -.88388-.88388v-5.80838a.88388,.88388 0 0,1 .88388-.88388"/>
  <path d="m284.26312,236.35463a.88388,.88388 0 0,1 .88388.88388v5.80838a.88388,.88388 0 0,1 -.88388.88388 .88388,.88388 0 0,1 -.88388-.88388v-5.80838a.88388,.88388 0 0,1 .88388-.88388"/>
  <path d="m276.32571,236.35463a.88388,.88388 0 0,1 .88388.88388v5.80838a.88388,.88388 0 0,1 -.88388.88388 .88388,.88388 0 0,1 -.88388-.88388v-5.80838a.88388,.88388 0 0,1 .88388-.88388"/>
  <path d="m281.61731,236.35463a.88388,.88388 0 0,1 .88388.88388v5.80838a.88388,.88388 0 0,1 -.88388.88388 .88388,.88388 0 0,1 -.88388-.88388v-5.80838a.88388,.88388 0 0,1 .88388-.88388"/>
  <path d="m268.38834,236.35463a.88388,.88388 0 0,1 .88388.88388v5.80838a.88388,.88388 0 0,1 -.88388.88388 .88388,.88388 0 0,1 -.88388-.88388v-5.80838a.88388,.88388 0 0,1 .88388-.88388"/>
  <path d="m273.67993,236.35463a.88388,.88388 0 0,1 .88388.88388v5.80838a.88388,.88388 0 0,1 -.88388.88388 .88388,.88388 0 0,1 -.88388-.88388v-5.80838a.88388,.88388 0 0,1 .88388-.88388"/>
  <path d="m265.74255,236.35463a.88388,.88388 0 0,1 .88388.88388v5.80838a.88388,.88388 0 0,1 -.88388.88388 .88388,.88388 0 0,1 -.88388-.88388v-5.80838a.88388,.88388 0 0,1 .88388-.88388"/>
  <path d="m271.03415,236.35463a.88388,.88388 0 0,1 .88388.88388v5.80838a.88388,.88388 0 0,1 -.88388.88388 .88388,.88388 0 0,1 -.88388-.88388v-5.80838a.88388,.88388 0 0,1 .88388-.88388"/>
  <path d="m263.09674,236.35463a.88388,.88388 0 0,1 .88388.88388v5.80838a.88388,.88388 0 0,1 -.88388.88388 .88388,.88388 0 0,1 -.88388-.88388v-5.80838a.88388,.88388 0 0,1 .88388-.88388"/>
  <path d="m260.45096,236.35463a.88388,.88388 0 0,1 .88388.88388v5.80838a.88388,.88388 0 0,1 -.88388.88388 .88388,.88388 0 0,1 -.88388-.88388v-5.80838a.88388,.88388 0 0,1 .88388-.88388"/>
  <g transform="translate(-1.7515 237.29)">
   <path d="m479.15765,236.35463a.88388,.88388 0 0,1 .88388.88388v5.80838a.88388,.88388 0 0,1 -.88388.88388 .88388,.88388 0 0,1 -.88388-.88388v-5.80838a.88388,.88388 0 0,1 .88388-.88388"/>
   <path d="m471.22028,236.35463a.88388,.88388 0 0,1 .88388.88388v5.80838a.88388,.88388 0 0,1 -.88388.88388 .88388,.88388 0 0,1 -.88388-.88388v-5.80838a.88388,.88388 0 0,1 .88388-.88388"/>
   <path d="m476.51187,236.35463a.88388,.88388 0 0,1 .88388.88388v5.80838a.88388,.88388 0 0,1 -.88388.88388 .88388,.88388 0 0,1 -.88388-.88388v-5.80838a.88388,.88388 0 0,1 .88388-.88388"/>
   <path d="m468.57446,236.35463a.88388,.88388 0 0,1 .88388.88388v5.80838a.88388,.88388 0 0,1 -.88388.88388 .88388,.88388 0 0,1 -.88388-.88388v-5.80838a.88388,.88388 0 0,1 .88388-.88388"/>
   <path d="m473.86606,236.35463a.88388,.88388 0 0,1 .88388.88388v5.80838a.88388,.88388 0 0,1 -.88388.88388 .88388,.88388 0 0,1 -.88388-.88388v-5.80838a.88388,.88388 0 0,1 .88388-.88388"/>
   <path d="m460.63708,236.35463a.88388,.88388 0 0,1 .88388.88388v5.80838a.88388,.88388 0 0,1 -.88388.88388 .88388,.88388 0 0,1 -.88388-.88388v-5.80838a.88388,.88388 0 0,1 .88388-.88388"/>
   <path d="m465.92868,236.35463a.88388,.88388 0 0,1 .88388.88388v5.80838a.88388,.88388 0 0,1 -.88388.88388 .88388,.88388 0 0,1 -.88388-.88388v-5.80838a.88388,.88388 0 0,1 .88388-.88388"/>
   <path d="m457.9913,236.35463a.88388,.88388 0 0,1 .88388.88388v5.80838a.88388,.88388 0 0,1 -.88388.88388 .88388,.88388 0 0,1 -.88388-.88388v-5.80838a.88388,.88388 0 0,1 .88388-.88388"/>
   <path d="m463.28287,236.35463a.88388,.88388 0 0,1 .88388.88388v5.80838a.88388,.88388 0 0,1 -.88388.88388 .88388,.88388 0 0,1 -.88388-.88388v-5.80838a.88388,.88388 0 0,1 .88388-.88388"/>
   <path d="m450.05389,236.35463a.88388,.88388 0 0,1 .88388.88388v5.80838a.88388,.88388 0 0,1 -.88388.88388 .88388,.88388 0 0,1 -.88388-.88388v-5.80838a.88388,.88388 0 0,1 .88388-.88388"/>
   <path d="m455.34549,236.35463a.88388,.88388 0 0,1 .88388.88388v5.80838a.88388,.88388 0 0,1 -.88388.88388 .88388,.88388 0 0,1 -.88388-.88388v-5.80838a.88388,.88388 0 0,1 .88388-.88388"/>
   <path d="m447.40811,236.35463a.88388,.88388 0 0,1 .88388.88388v5.80838a.88388,.88388 0 0,1 -.88388.88388 .88388,.88388 0 0,1 -.88388-.88388v-5.80838a.88388,.88388 0 0,1 .88388-.88388"/>
   <path d="m452.69971,236.35463a.88388,.88388 0 0,1 .88388.88388v5.80838a.88388,.88388 0 0,1 -.88388.88388 .88388,.88388 0 0,1 -.88388-.88388v-5.80838a.88388,.88388 0 0,1 .88388-.88388"/>
   <path d="m439.47073,236.35463a.88388,.88388 0 0,1 .88388.88388v5.80838a.88388,.88388 0 0,1 -.88388.88388 .88388,.88388 0 0,1 -.88388-.88388v-5.80838a.88388,.88388 0 0,1 .88388-.88388"/>
   <path d="m444.76233,236.35463a.88388,.88388 0 0,1 .88388.88388v5.80838a.88388,.88388 0 0,1 -.88388.88388 .88388,.88388 0 0,1 -.88388-.88388v-5.80838a.88388,.88388 0 0,1 .88388-.88388"/>
   <path d="m436.82492,236.35463a.88388,.88388 0 0,1 .88388.88388v5.80838a.88388,.88388 0 0,1 -.88388.88388 .88388,.88388 0 0,1 -.88388-.88388v-5.80838a.88388,.88388 0 0,1 .88388-.88388"/>
   <path d="m442.11652,236.35463a.88388,.88388 0 0,1 .88388.88388v5.80838a.88388,.88388 0 0,1 -.88388.88388 .88388,.88388 0 0,1 -.88388-.88388v-5.80838a.88388,.88388 0 0,1 .88388-.88388"/>
   <path d="m428.88754,236.35463a.88388,.88388 0 0,1 .88388.88388v5.80838a.88388,.88388 0 0,1 -.88388.88388 .88388,.88388 0 0,1 -.88388-.88388v-5.80838a.88388,.88388 0 0,1 .88388-.88388"/>
   <path d="m434.17914,236.35463a.88388,.88388 0 0,1 .88388.88388v5.80838a.88388,.88388 0 0,1 -.88388.88388 .88388,.88388 0 0,1 -.88388-.88388v-5.80838a.88388,.88388 0 0,1 .88388-.88388"/>
   <path d="m426.24176,236.35463a.88388,.88388 0 0,1 .88388.88388v5.80838a.88388,.88388 0 0,1 -.88388.88388 .88388,.88388 0 0,1 -.88388-.88388v-5.80838a.88388,.88388 0 0,1 .88388-.88388"/>
   <path d="m431.53336,236.35463a.88388,.88388 0 0,1 .88388.88388v5.80838a.88388,.88388 0 0,1 -.88388.88388 .88388,.88388 0 0,1 -.88388-.88388v-5.80838a.88388,.88388 0 0,1 .88388-.88388"/>
   <path d="m418.30435,236.35463a.88388,.88388 0 0,1 .88388.88388v5.80838a.88388,.88388 0 0,1 -.88388.88388 .88388,.88388 0 0,1 -.88388-.88388v-5.80838a.88388,.88388 0 0,1 .88388-.88388"/>
   <path d="m423.59595,236.35463a.88388,.88388 0 0,1 .88388.88388v5.80838a.88388,.88388 0 0,1 -.88388.88388 .88388,.88388 0 0,1 -.88388-.88388v-5.80838a.88388,.88388 0 0,1 .88388-.88388"/>
   <path d="m415.65857,236.35463a.88388,.88388 0 0,1 .88388.88388v5.80838a.88388,.88388 0 0,1 -.88388.88388 .88388,.88388 0 0,1 -.88388-.88388v-5.80838a.88388,.88388 0 0,1 .88388-.88388"/>
   <path d="m420.95016,236.35463a.88388,.88388 0 0,1 .88388.88388v5.80838a.88388,.88388 0 0,1 -.88388.88388 .88388,.88388 0 0,1 -.88388-.88388v-5.80838a.88388,.88388 0 0,1 .88388-.88388"/>
   <path d="m407.72119,236.35463a.88388,.88388 0 0,1 .88388.88388v5.80838a.88388,.88388 0 0,1 -.88388.88388 .88388,.88388 0 0,1 -.88388-.88388v-5.80838a.88388,.88388 0 0,1 .88388-.88388"/>
   <path d="m413.01279,236.35463a.88388,.88388 0 0,1 .88388.88388v5.80838a.88388,.88388 0 0,1 -.88388.88388 .88388,.88388 0 0,1 -.88388-.88388v-5.80838a.88388,.88388 0 0,1 .88388-.88388"/>
   <path d="m405.07538,236.35463a.88388,.88388 0 0,1 .88388.88388v5.80838a.88388,.88388 0 0,1 -.88388.88388 .88388,.88388 0 0,1 -.88388-.88388v-5.80838a.88388,.88388 0 0,1 .88388-.88388"/>
   <path d="m410.36697,236.35463a.88388,.88388 0 0,1 .88388.88388v5.80838a.88388,.88388 0 0,1 -.88388.88388 .88388,.88388 0 0,1 -.88388-.88388v-5.80838a.88388,.88388 0 0,1 .88388-.88388"/>
   <path d="m397.138,236.35463a.88388,.88388 0 0,1 .88388.88388v5.80838a.88388,.88388 0 0,1 -.88388.88388 .88388,.88388 0 0,1 -.88388-.88388v-5.80838a.88388,.88388 0 0,1 .88388-.88388"/>
   <path d="m402.4296,236.35463a.88388,.88388 0 0,1 .88388.88388v5.80838a.88388,.88388 0 0,1 -.88388.88388 .88388,.88388 0 0,1 -.88388-.88388v-5.80838a.88388,.88388 0 0,1 .88388-.88388"/>
   <path d="m394.49222,236.35463a.88388,.88388 0 0,1 .88388.88388v5.80838a.88388,.88388 0 0,1 -.88388.88388 .88388,.88388 0 0,1 -.88388-.88388v-5.80838a.88388,.88388 0 0,1 .88388-.88388"/>
   <path d="m399.78381,236.35463a.88388,.88388 0 0,1 .88388.88388v5.80838a.88388,.88388 0 0,1 -.88388.88388 .88388,.88388 0 0,1 -.88388-.88388v-5.80838a.88388,.88388 0 0,1 .88388-.88388"/>
   <path d="m386.55481,236.35463a.88388,.88388 0 0,1 .88388.88388v5.80838a.88388,.88388 0 0,1 -.88388.88388 .88388,.88388 0 0,1 -.88388-.88388v-5.80838a.88388,.88388 0 0,1 .88388-.88388"/>
   <path d="m391.8464,236.35463a.88388,.88388 0 0,1 .88388.88388v5.80838a.88388,.88388 0 0,1 -.88388.88388 .88388,.88388 0 0,1 -.88388-.88388v-5.80838a.88388,.88388 0 0,1 .88388-.88388"/>
   <path d="m383.90903,236.35463a.88388,.88388 0 0,1 .88388.88388v5.80838a.88388,.88388 0 0,1 -.88388.88388 .88388,.88388 0 0,1 -.88388-.88388v-5.80838a.88388,.88388 0 0,1 .88388-.88388"/>
   <path d="m389.20062,236.35463a.88388,.88388 0 0,1 .88388.88388v5.80838a.88388,.88388 0 0,1 -.88388.88388 .88388,.88388 0 0,1 -.88388-.88388v-5.80838a.88388,.88388 0 0,1 .88388-.88388"/>
   <path d="m375.97165,236.35463a.88388,.88388 0 0,1 .88388.88388v5.80838a.88388,.88388 0 0,1 -.88388.88388 .88388,.88388 0 0,1 -.88388-.88388v-5.80838a.88388,.88388 0 0,1 .88388-.88388"/>
   <path d="m381.26324,236.35463a.88388,.88388 0 0,1 .88388.88388v5.80838a.88388,.88388 0 0,1 -.88388.88388 .88388,.88388 0 0,1 -.88388-.88388v-5.80838a.88388,.88388 0 0,1 .88388-.88388"/>
   <path d="m373.32584,236.35463a.88388,.88388 0 0,1 .88388.88388v5.80838a.88388,.88388 0 0,1 -.88388.88388 .88388,.88388 0 0,1 -.88388-.88388v-5.80838a.88388,.88388 0 0,1 .88388-.88388"/>
   <path d="m378.61743,236.35463a.88388,.88388 0 0,1 .88388.88388v5.80838a.88388,.88388 0 0,1 -.88388.88388 .88388,.88388 0 0,1 -.88388-.88388v-5.80838a.88388,.88388 0 0,1 .88388-.88388"/>
   <path d="m365.38846,236.35463a.88388,.88388 0 0,1 .88388.88388v5.80838a.88388,.88388 0 0,1 -.88388.88388 .88388,.88388 0 0,1 -.88388-.88388v-5.80838a.88388,.88388 0 0,1 .88388-.88388"/>
   <path d="m370.68005,236.35463a.88388,.88388 0 0,1 .88388.88388v5.80838a.88388,.88388 0 0,1 -.88388.88388 .88388,.88388 0 0,1 -.88388-.88388v-5.80838a.88388,.88388 0 0,1 .88388-.88388"/>
   <path d="m362.74268,236.35463a.88388,.88388 0 0,1 .88388.88388v5.80838a.88388,.88388 0 0,1 -.88388.88388 .88388,.88388 0 0,1 -.88388-.88388v-5.80838a.88388,.88388 0 0,1 .88388-.88388"/>
   <path d="m368.03427,236.35463a.88388,.88388 0 0,1 .88388.88388v5.80838a.88388,.88388 0 0,1 -.88388.88388 .88388,.88388 0 0,1 -.88388-.88388v-5.80838a.88388,.88388 0 0,1 .88388-.88388"/>
   <path d="m354.80527,236.35463a.88388,.88388 0 0,1 .88388.88388v5.80838a.88388,.88388 0 0,1 -.88388.88388 .88388,.88388 0 0,1 -.88388-.88388v-5.80838a.88388,.88388 0 0,1 .88388-.88388"/>
   <path d="m360.09686,236.35463a.88388,.88388 0 0,1 .88388.88388v5.80838a.88388,.88388 0 0,1 -.88388.88388 .88388,.88388 0 0,1 -.88388-.88388v-5.80838a.88388,.88388 0 0,1 .88388-.88388"/>
   <path d="m352.15948,236.35463a.88388,.88388 0 0,1 .88388.88388v5.80838a.88388,.88388 0 0,1 -.88388.88388 .88388,.88388 0 0,1 -.88388-.88388v-5.80838a.88388,.88388 0 0,1 .88388-.88388"/>
   <path d="m357.45108,236.35463a.88388,.88388 0 0,1 .88388.88388v5.80838a.88388,.88388 0 0,1 -.88388.88388 .88388,.88388 0 0,1 -.88388-.88388v-5.80838a.88388,.88388 0 0,1 .88388-.88388"/>
   <path d="m344.22211,236.35463a.88388,.88388 0 0,1 .88388.88388v5.80838a.88388,.88388 0 0,1 -.88388.88388 .88388,.88388 0 0,1 -.88388-.88388v-5.80838a.88388,.88388 0 0,1 .88388-.88388"/>
   <path d="m349.5137,236.35463a.88388,.88388 0 0,1 .88388.88388v5.80838a.88388,.88388 0 0,1 -.88388.88388 .88388,.88388 0 0,1 -.88388-.88388v-5.80838a.88388,.88388 0 0,1 .88388-.88388"/>
   <path d="m341.57629,236.35463a.88388,.88388 0 0,1 .88388.88388v5.80838a.88388,.88388 0 0,1 -.88388.88388 .88388,.88388 0 0,1 -.88388-.88388v-5.80838a.88388,.88388 0 0,1 .88388-.88388"/>
   <path d="m346.86789,236.35463a.88388,.88388 0 0,1 .88388.88388v5.80838a.88388,.88388 0 0,1 -.88388.88388 .88388,.88388 0 0,1 -.88388-.88388v-5.80838a.88388,.88388 0 0,1 .88388-.88388"/>
   <path d="m333.63892,236.35463a.88388,.88388 0 0,1 .88388.88388v5.80838a.88388,.88388 0 0,1 -.88388.88388 .88388,.88388 0 0,1 -.88388-.88388v-5.80838a.88388,.88388 0 0,1 .88388-.88388"/>
   <path d="m338.93051,236.35463a.88388,.88388 0 0,1 .88388.88388v5.80838a.88388,.88388 0 0,1 -.88388.88388 .88388,.88388 0 0,1 -.88388-.88388v-5.80838a.88388,.88388 0 0,1 .88388-.88388"/>
   <path d="m330.99313,236.35463a.88388,.88388 0 0,1 .88388.88388v5.80838a.88388,.88388 0 0,1 -.88388.88388 .88388,.88388 0 0,1 -.88388-.88388v-5.80838a.88388,.88388 0 0,1 .88388-.88388"/>
   <path d="m336.28473,236.35463a.88388,.88388 0 0,1 .88388.88388v5.80838a.88388,.88388 0 0,1 -.88388.88388 .88388,.88388 0 0,1 -.88388-.88388v-5.80838a.88388,.88388 0 0,1 .88388-.88388"/>
   <path d="m323.05576,236.35463a.88388,.88388 0 0,1 .88388.88388v5.80838a.88388,.88388 0 0,1 -.88388.88388 .88388,.88388 0 0,1 -.88388-.88388v-5.80838a.88388,.88388 0 0,1 .88388-.88388"/>
   <path d="m328.34732,236.35463a.88388,.88388 0 0,1 .88388.88388v5.80838a.88388,.88388 0 0,1 -.88388.88388 .88388,.88388 0 0,1 -.88388-.88388v-5.80838a.88388,.88388 0 0,1 .88388-.88388"/>
   <path d="m320.40994,236.35463a.88388,.88388 0 0,1 .88388.88388v5.80838a.88388,.88388 0 0,1 -.88388.88388 .88388,.88388 0 0,1 -.88388-.88388v-5.80838a.88388,.88388 0 0,1 .88388-.88388"/>
   <path d="m325.70154,236.35463a.88388,.88388 0 0,1 .88388.88388v5.80838a.88388,.88388 0 0,1 -.88388.88388 .88388,.88388 0 0,1 -.88388-.88388v-5.80838a.88388,.88388 0 0,1 .88388-.88388"/>
   <path d="m312.47256,236.35463a.88388,.88388 0 0,1 .88388.88388v5.80838a.88388,.88388 0 0,1 -.88388.88388 .88388,.88388 0 0,1 -.88388-.88388v-5.80838a.88388,.88388 0 0,1 .88388-.88388"/>
   <path d="m317.76416,236.35463a.88388,.88388 0 0,1 .88388.88388v5.80838a.88388,.88388 0 0,1 -.88388.88388 .88388,.88388 0 0,1 -.88388-.88388v-5.80838a.88388,.88388 0 0,1 .88388-.88388"/>
   <path d="m309.82675,236.35463a.88388,.88388 0 0,1 .88388.88388v5.80838a.88388,.88388 0 0,1 -.88388.88388 .88388,.88388 0 0,1 -.88388-.88388v-5.80838a.88388,.88388 0 0,1 .88388-.88388"/>
   <path d="m315.11835,236.35463a.88388,.88388 0 0,1 .88388.88388v5.80838a.88388,.88388 0 0,1 -.88388.88388 .88388,.88388 0 0,1 -.88388-.88388v-5.80838a.88388,.88388 0 0,1 .88388-.88388"/>
   <path d="m301.88937,236.35463a.88388,.88388 0 0,1 .88388.88388v5.80838a.88388,.88388 0 0,1 -.88388.88388 .88388,.88388 0 0,1 -.88388-.88388v-5.80838a.88388,.88388 0 0,1 .88388-.88388"/>
   <path d="m307.18097,236.35463a.88388,.88388 0 0,1 .88388.88388v5.80838a.88388,.88388 0 0,1 -.88388.88388 .88388,.88388 0 0,1 -.88388-.88388v-5.80838a.88388,.88388 0 0,1 .88388-.88388"/>
   <path d="m299.24359,236.35463a.88388,.88388 0 0,1 .88388.88388v5.80838a.88388,.88388 0 0,1 -.88388.88388 .88388,.88388 0 0,1 -.88388-.88388v-5.80838a.88388,.88388 0 0,1 .88388-.88388"/>
   <path d="m304.53519,236.35463a.88388,.88388 0 0,1 .88388.88388v5.80838a.88388,.88388 0 0,1 -.88388.88388 .88388,.88388 0 0,1 -.88388-.88388v-5.80838a.88388,.88388 0 0,1 .88388-.88388"/>
   <path d="m291.30621,236.35463a.88388,.88388 0 0,1 .88388.88388v5.80838a.88388,.88388 0 0,1 -.88388.88388 .88388,.88388 0 0,1 -.88388-.88388v-5.80838a.88388,.88388 0 0,1 .88388-.88388"/>
   <path d="m296.59778,236.35463a.88388,.88388 0 0,1 .88388.88388v5.80838a.88388,.88388 0 0,1 -.88388.88388 .88388,.88388 0 0,1 -.88388-.88388v-5.80838a.88388,.88388 0 0,1 .88388-.88388"/>
   <path d="m288.6604,236.35463a.88388,.88388 0 0,1 .88388.88388v5.80838a.88388,.88388 0 0,1 -.88388.88388 .88388,.88388 0 0,1 -.88388-.88388v-5.80838a.88388,.88388 0 0,1 .88388-.88388"/>
   <path d="m293.952,236.35463a.88388,.88388 0 0,1 .88388.88388v5.80838a.88388,.88388 0 0,1 -.88388.88388 .88388,.88388 0 0,1 -.88388-.88388v-5.80838a.88388,.88388 0 0,1 .88388-.88388"/>
   <path d="m280.72302,236.35463a.88388,.88388 0 0,1 .88388.88388v5.80838a.88388,.88388 0 0,1 -.88388.88388 .88388,.88388 0 0,1 -.88388-.88388v-5.80838a.88388,.88388 0 0,1 .88388-.88388"/>
   <path d="m286.01462,236.35463a.88388,.88388 0 0,1 .88388.88388v5.80838a.88388,.88388 0 0,1 -.88388.88388 .88388,.88388 0 0,1 -.88388-.88388v-5.80838a.88388,.88388 0 0,1 .88388-.88388"/>
   <path d="m278.07721,236.35463a.88388,.88388 0 0,1 .88388.88388v5.80838a.88388,.88388 0 0,1 -.88388.88388 .88388,.88388 0 0,1 -.88388-.88388v-5.80838a.88388,.88388 0 0,1 .88388-.88388"/>
   <path d="m283.3688,236.35463a.88388,.88388 0 0,1 .88388.88388v5.80838a.88388,.88388 0 0,1 -.88388.88388 .88388,.88388 0 0,1 -.88388-.88388v-5.80838a.88388,.88388 0 0,1 .88388-.88388"/>
   <path d="m270.13983,236.35463a.88388,.88388 0 0,1 .88388.88388v5.80838a.88388,.88388 0 0,1 -.88388.88388 .88388,.88388 0 0,1 -.88388-.88388v-5.80838a.88388,.88388 0 0,1 .88388-.88388"/>
   <path d="m275.43143,236.35463a.88388,.88388 0 0,1 .88388.88388v5.80838a.88388,.88388 0 0,1 -.88388.88388 .88388,.88388 0 0,1 -.88388-.88388v-5.80838a.88388,.88388 0 0,1 .88388-.88388"/>
   <path d="m267.49405,236.35463a.88388,.88388 0 0,1 .88388.88388v5.80838a.88388,.88388 0 0,1 -.88388.88388 .88388,.88388 0 0,1 -.88388-.88388v-5.80838a.88388,.88388 0 0,1 .88388-.88388"/>
   <path d="m272.78564,236.35463a.88388,.88388 0 0,1 .88388.88388v5.80838a.88388,.88388 0 0,1 -.88388.88388 .88388,.88388 0 0,1 -.88388-.88388v-5.80838a.88388,.88388 0 0,1 .88388-.88388"/>
   <path d="m264.84824,236.35463a.88388,.88388 0 0,1 .88388.88388v5.80838a.88388,.88388 0 0,1 -.88388.88388 .88388,.88388 0 0,1 -.88388-.88388v-5.80838a.88388,.88388 0 0,1 .88388-.88388"/>
   <path d="m262.20245,236.35463a.88388,.88388 0 0,1 .88388.88388v5.80838a.88388,.88388 0 0,1 -.88388.88388 .88388,.88388 0 0,1 -.88388-.88388v-5.80838a.88388,.88388 0 0,1 .88388-.88388"/>
  </g>
  <g transform="matrix(1 0 -.70711 .71716 140.65 71.546)">
   <path d="m304.62427,210.02187a.88388,.88388 0 0,1 .88388.88388v5.80838a.88388,.88388 0 0,1 -.88388.88388 .88388,.88388 0 0,1 -.88388-.88388v-5.80838a.88388,.88388 0 0,1 .88388-.88388"/>
   <path d="m309.91586,210.02187a.88388,.88388 0 0,1 .88388.88388v5.80838a.88388,.88388 0 0,1 -.88388.88388 .88388,.88388 0 0,1 -.88388-.88388v-5.80838a.88388,.88388 0 0,1 .88388-.88388"/>
   <path d="m301.97848,210.02187a.88388,.88388 0 0,1 .88388.88388v5.80838a.88388,.88388 0 0,1 -.88388.88388 .88388,.88388 0 0,1 -.88388-.88388v-5.80838a.88388,.88388 0 0,1 .88388-.88388"/>
   <path d="m307.27008,210.02187a.88388,.88388 0 0,1 .88388.88388v5.80838a.88388,.88388 0 0,1 -.88388.88388 .88388,.88388 0 0,1 -.88388-.88388v-5.80838a.88388,.88388 0 0,1 .88388-.88388"/>
   <path d="m299.33267,210.02187a.88388,.88388 0 0,1 .88388.88388v5.80838a.88388,.88388 0 0,1 -.88388.88388 .88388,.88388 0 0,1 -.88388-.88388v-5.80838a.88388,.88388 0 0,1 .88388-.88388"/>
   <path d="m296.68689,210.02187a.88388,.88388 0 0,1 .88388.88388v5.80838a.88388,.88388 0 0,1 -.88388.88388 .88388,.88388 0 0,1 -.88388-.88388v-5.80838a.88388,.88388 0 0,1 .88388-.88388"/>
  </g>
  <g transform="matrix(-1 0 .70711 .71716 596.88 71.546)">
   <path d="m304.62427,210.02187a.88388,.88388 0 0,1 .88388.88388v5.80838a.88388,.88388 0 0,1 -.88388.88388 .88388,.88388 0 0,1 -.88388-.88388v-5.80838a.88388,.88388 0 0,1 .88388-.88388"/>
   <path d="m309.91586,210.02187a.88388,.88388 0 0,1 .88388.88388v5.80838a.88388,.88388 0 0,1 -.88388.88388 .88388,.88388 0 0,1 -.88388-.88388v-5.80838a.88388,.88388 0 0,1 .88388-.88388"/>
   <path d="m301.97848,210.02187a.88388,.88388 0 0,1 .88388.88388v5.80838a.88388,.88388 0 0,1 -.88388.88388 .88388,.88388 0 0,1 -.88388-.88388v-5.80838a.88388,.88388 0 0,1 .88388-.88388"/>
   <path d="m307.27008,210.02187a.88388,.88388 0 0,1 .88388.88388v5.80838a.88388,.88388 0 0,1 -.88388.88388 .88388,.88388 0 0,1 -.88388-.88388v-5.80838a.88388,.88388 0 0,1 .88388-.88388"/>
   <path d="m299.33267,210.02187a.88388,.88388 0 0,1 .88388.88388v5.80838a.88388,.88388 0 0,1 -.88388.88388 .88388,.88388 0 0,1 -.88388-.88388v-5.80838a.88388,.88388 0 0,1 .88388-.88388"/>
   <path d="m296.68689,210.02187a.88388,.88388 0 0,1 .88388.88388v5.80838a.88388,.88388 0 0,1 -.88388.88388 .88388,.88388 0 0,1 -.88388-.88388v-5.80838a.88388,.88388 0 0,1 .88388-.88388"/>
  </g>
 </g>
</svg>
